Model building
…
---

## Make predictions for test data

```r
email_pred <- predict(email_fit, test_data, type = "prob") %>% 
  bind_cols(test_data) 

email_pred
```

```
## # A tibble: 784 x 23
##   .pred_0 .pred_1 spam  to_multiple  from    cc sent_email
##     <dbl>   <dbl> <fct>       <dbl> <dbl> <int>      <dbl>
## 1   0.957 0.0428  0               0     1     0          0
## 2   0.934 0.0664  0               0     1     0          0
## 3   0.920 0.0803  0               0     1     0          1
## 4   0.999 0.00149 0               0     1     2          0
## 5   0.903 0.0971  0               0     1     0          0
## 6   0.908 0.0925  0               0     1     0          0
## # … with 778 more rows, and 16 more variables: time <dttm>,
## #   image <dbl>, attach <dbl>, dollar <dbl>, winner <fct>,
## #   inherit <dbl>, viagra <dbl>, password <dbl>, num_char <dbl>,
## #   line_breaks <int>, format <dbl>, re_subj <dbl>,
## #   exclaim_subj <dbl>, urgent_subj <dbl>, exclaim_mess <dbl>,
## #   number <fct>
```
…
